[
  { "key": "reporte_hojaatencion",  "value": "reportes\\rptVUHojaAtencion.rdlc" },
  { "key": "reporte_ficha_pago",    "value": "reportes\\rptVUFichapago.rdlc" },
  { "key": "ruta_imagen_aafy",      "value": "reportes\\logo_aafy_500px.png" },
  { "key": "ruta_imagen_yuc",       "value": "reportes\\logo_yuc_250x250.png" },  
  { "key": "titulo_reporte",        "value": "Hoja de Atención de Trámites y Servicios" },
  { "key": "titulo_ficha_pago",     "value": "Formato para pago de Trámites y Servicios" },
  { "key": "total_ceros_importe",   "value": "9" },
  { "key": "guardar_pdf",           "value": "true" },
  { "key": "ruta_filesystem_pdf",   "value": "filesystem_temp" },
  { "key": "mascara_linearef",      "value": "^(.{3})(.{4})(.{4})(.{4})(.{4})(.{4})(.{4})$~$1-$2-$3-$4-$5-$6-$7"},
  { "key": "ruta_imagen_convenios", "value": "reportes\\convenios_externos_mayo2020.png" },
	{ 
		"key": "reporte_aviso", 
		"value": "Formas de Pago: En las Cajas Autorizadas de la AAFY, Ventanillas \u00danicas Estatales (VUE) y Plataforma Digital de Pagos Referenciados disponible en http:\/\/aafy.yucatan.gob.mx" 
	},
  { "key": "reporte_msg1",  "value": "" },
  { "key": "reporte_msg2",  "value": "" },
  { "key": "cEstatusPago",  "value": "PAGADO" }
]