[
	{"key": "e00_excepcion_general", "ierror":99, "msg": "Ocurrió un error en la ejecución del servicio, favor comuníquese con el administrador del sistema." },
	{"key": "e99_hoja_excepcion", "ierror":99, "msg": "Ocurrió un error al intentar obtener la hoja de atención, favor comuníquese con el administrador del sistema." },
	{"key": "e01_hoja_refsinnumeros", "ierror":1, "msg": "El parámetro [cLineaReferencia] solo debe contener caracteres numéricos." },
	{"key": "e02_hoja_appkeyinvalido", "ierror":2, "msg": "El AppKey enviado no es válido o no tiene permiso para consultar el servicio." },
	{"key": "e03_hoja_configuracion", "ierror":3, "msg": "Ocurrió un error al intentar obtener la configuración del servicio, favor comuníquese con el administrador del sistema." },
	{"key": "e05_hoja_agrupador", "ierror":5, "msg": "Ocurrió un error al generar el detalle de la ficha de pago, favor comuníquese con el administrador del sistema." },
	{"key": "e06_hoja_errorbarcode", "ierror":6, "msg": "No se posible obtener el código de barras para generar el documento." },
	{"key": "e07_hoja_error_pdf", "ierror":7, "msg": "No se posible obtener la representación pdf del documento." },
	{"key": "e08_hoja_sinconceptos", "ierror":8, "msg": "La línea de referencia no tiene conceptos a pagar." },
	{"key": "e09_hoja_no_appkey", "ierror":9, "msg": "El identificador del Sistema(AppKey) no está autorizado para invocar al servicio."},
	{"key": "e01_ws_consultar_ref", "ierror":1, "msg": "La línea de referencia no tiene un formato correcto." },
	{"key": "e02_ws_consultar_ref", "ierror":2, "msg": "La respuesta JSON del servidor de aplicaciones no contiene el nodo [aDatos]." },		
	{"key": "e03_ws_consultar_ref", "ierror":3, "msg": "El identificador del Sistema(AppKey) no está autorizado para invocar al servicio."},
	{"key": "e01_ws_generar_refgn", "ierror":1, "msg": "La respuesta JSON del servidor de aplicaciones no contiene una estructura correcta."},
	{"key": "e02_ws_generar_refgn", "ierror":2, "msg": "Los parámetros obligatorios no pueden contener valores vacíos o nullos."},
	{"key": "e03_ws_generar_refgn", "ierror":3, "msg": "El identificador del Sistema(AppKey) no está autorizado para invocar al servicio."},
  {"key": "e01_ws_consultar_detalleref", "ierror":4, "msg": "La consulta de esta línea de referencia no está habilitada."},
  {"key": "e01_ws_consultar_recibos", "ierror":4, "msg": "La línea de referencia no está habilitada para pago."},
  {"key": "e02_ws_consultar_recibos", "ierror":2, "msg": "La línea de Referencia no tiene información disponible."},
  {"key": "ews_ref_vencida", "ierror":101, "msg": "La referencia solicitada se encuentra vencida."},
  {"key": "ews_ref_nofound", "ierror":21, "msg": "La referencia solicitada no fue encontrada." },
  {"key": "ews_ref_pagada", "ierror":2, "msg": "La referencia solicitada ya cuenta con un pago realizado."},
  {"key": "e04_ws_consultar_ref", "ierror":4, "msg": "No se pudo Obtener la configuración global."}

]